Supercluster_nr	Description	index_of	num_clusters	cluster_id	SeqName
001	cell surface A33 antigen	1	1	cluster065105	cluster065105_Lp131_Typhlosole_TRINITY_DN25006_c0_g1_i4.p1
002	myelin protein zero protein 1	1	4	cluster045413	cluster045413_Lp136_Gills_TRINITY_DN1133_c0_g1_i16.p1
002	myelin protein zero protein 1	2	4	cluster049222	cluster049222_Lp136_Typhlosole_TRINITY_DN1203_c0_g1_i7.p1
002	myelin protein zero protein 1	3	4	cluster043930	cluster043930_Lf141_Gills_TRINITY_DN4008_c0_g1_i3.p1
002	myelin protein zero protein 1	4	4	cluster007906	cluster007906_Lp137_Blood_TRINITY_DN1425_c0_g1_i14.p1
003	prostate stem cell antigen	1	1	cluster022095	cluster022095_Lp136_Blood_TRINITY_DN53570_c0_g1_i2.p1
004	fibroblast growth factor 9	1	1	cluster038093	cluster038093_Lp131_Gills_TRINITY_DN16920_c2_g1_i1.p1
005	obscurin	1	6	cluster048601	cluster048601_Lp137_Gills_TRINITY_DN3327_c0_g1_i5.p1
005	obscurin	2	6	cluster035788	cluster035788_Lf140_Blood_TRINITY_DN5563_c0_g1_i12.p1
005	obscurin	3	6	cluster032746	cluster032746_Lf140_Blood_TRINITY_DN5563_c0_g1_i11.p1
005	obscurin	4	6	cluster075095	cluster075095_Lp136_Typhlosole_TRINITY_DN5346_c0_g1_i9.p1
005	obscurin	5	6	cluster011858	cluster011858_Pm144_Kidney_TRINITY_DN290_c0_g1_i1.p1
005	obscurin	6	6	cluster065153	cluster065153_Pm144_Kidney_TRINITY_DN290_c0_g1_i3.p1
006	uncharacterized protein LOC111423064	1	1	cluster064012	cluster064012_Lp137_Blood_TRINITY_DN32720_c0_g1_i6.p1
007	integrin beta-5	1	1	cluster010657	cluster010657_Lp132_Typhlosole_TRINITY_DN4384_c0_g2_i8.p1
008	uncharacterized protein LOC116956682	1	3	cluster076308	cluster076308_Lf141_Gills_TRINITY_DN1228_c0_g1_i1.p1
008	uncharacterized protein LOC116956682	2	3	cluster028045	cluster028045_Lp132_Typhlosole_TRINITY_DN8467_c0_g2_i3.p1
008	uncharacterized protein LOC116956682	3	3	cluster073373	cluster073373_Lp130_Gills_TRINITY_DN15551_c0_g1_i1.p1
009	protocadherin Fat 1	1	1	cluster027372	cluster027372_Lp130_Gills_TRINITY_DN3584_c0_g1_i21.p1
010	putative tripartite motif-containing protein 75	1	6	cluster043637	cluster043637_Lp133_Typhlosole_TRINITY_DN238_c0_g1_i16.p1
010	putative tripartite motif-containing protein 75	2	6	cluster057249	cluster057249_Lp131_Typhlosole_TRINITY_DN412_c0_g1_i1.p1
010	putative tripartite motif-containing protein 75	3	6	cluster074860	cluster074860_Lp133_Typhlosole_TRINITY_DN238_c0_g1_i2.p1
010	putative tripartite motif-containing protein 75	4	6	cluster044251	cluster044251_Lp136_Typhlosole_TRINITY_DN430_c0_g1_i8.p1
010	putative tripartite motif-containing protein 75	5	6	cluster035789	cluster035789_Lp136_Typhlosole_TRINITY_DN430_c0_g1_i6.p1
010	putative tripartite motif-containing protein 75	6	6	cluster039410	cluster039410_Lp133_Typhlosole_TRINITY_DN238_c0_g1_i3.p1
011	nectin-3	1	1	cluster055146	cluster055146_Lp130_Typhlosole_TRINITY_DN9334_c1_g1_i4.p1
012	tumor necrosis factor receptor superfamily member 6	1	10	cluster009216	cluster009216_Pm144_Blood_TRINITY_DN3333_c0_g1_i2.p1
012	tumor necrosis factor receptor superfamily member 6	2	10	cluster065007	cluster065007_Lp132_Kidney_TRINITY_DN30631_c0_g1_i6.p1
012	tumor necrosis factor receptor superfamily member 6	3	10	cluster044791	cluster044791_Lp133_Gills_TRINITY_DN3316_c0_g1_i11.p1
012	tumor necrosis factor receptor superfamily member 6	4	10	cluster048505	cluster048505_Lp130_Blood_TRINITY_DN17188_c0_g1_i9.p1
012	tumor necrosis factor receptor superfamily member 6	5	10	cluster065911	cluster065911_Lf143_Kidney_TRINITY_DN5015_c0_g1_i2.p1
012	tumor necrosis factor receptor superfamily member 6	6	10	cluster044977	cluster044977_Lf145_Gills_TRINITY_DN3329_c0_g2_i10.p1
012	tumor necrosis factor receptor superfamily member 6	7	10	cluster055288	cluster055288_Pm144_Typhlosole_TRINITY_DN2007_c0_g1_i2.p1
012	tumor necrosis factor receptor superfamily member 6	8	10	cluster032595	cluster032595_Lf143_Typhlosole_TRINITY_DN34126_c0_g2_i3.p1
012	tumor necrosis factor receptor superfamily member 6	9	10	cluster030389	cluster030389_Lp133_Gills_TRINITY_DN955_c0_g2_i7.p1
012	tumor necrosis factor receptor superfamily member 6	10	10	cluster055674	cluster055674_Lp130_Kidney_TRINITY_DN5252_c0_g1_i11.p1
013	NA_169	1	1	cluster026034	cluster026034_Lp139_Typhlosole_TRINITY_DN898_c1_g1_i6.p1
014	neuroligin-3	1	1	cluster030173	cluster030173_Lp139_Kidney_TRINITY_DN13685_c0_g1_i3.p1
015	NA_201	1	1	cluster046808	cluster046808_Lp139_Typhlosole_TRINITY_DN17413_c0_g1_i4.p1
016	carcinoembryonic antigen-related cell adhesion molecule 5	1	1	cluster063613	cluster063613_Lp137_Kidney_TRINITY_DN7807_c0_g2_i7.p1
017	transmembrane 4 L6 family member 1	1	2	cluster067228	cluster067228_Lp130_Kidney_TRINITY_DN3673_c0_g1_i1.p1
017	transmembrane 4 L6 family member 1	2	2	cluster043956	cluster043956_Lp133_Typhlosole_TRINITY_DN249_c0_g1_i6.p1
018	uncharacterized protein LOC116957602	1	5	cluster010115	cluster010115_Lf140_Gills_TRINITY_DN3032_c0_g1_i3.p1
018	uncharacterized protein LOC116957602	2	5	cluster063641	cluster063641_Lp137_Typhlosole_TRINITY_DN2066_c0_g1_i11.p1
018	uncharacterized protein LOC116957602	3	5	cluster056545	cluster056545_Lf140_Typhlosole_TRINITY_DN1170_c1_g1_i1.p1
018	uncharacterized protein LOC116957602	4	5	cluster039592	cluster039592_Pm144_Blood_TRINITY_DN23152_c0_g1_i5.p1
018	uncharacterized protein LOC116957602	5	5	cluster025861	cluster025861_Lf141_Typhlosole_TRINITY_DN1547_c0_g2_i3.p1
019	endothelin-1 receptor	1	1	cluster063215	cluster063215_Lp131_Kidney_TRINITY_DN6045_c0_g1_i3.p1
020	NXPE family member 3	1	7	cluster012464	cluster012464_Lf140_Gills_TRINITY_DN6275_c0_g1_i1.p1
020	NXPE family member 3	2	7	cluster033186	cluster033186_Lp137_Gills_TRINITY_DN16539_c0_g1_i7.p1
020	NXPE family member 3	3	7	cluster076798	cluster076798_Pm144_Blood_TRINITY_DN8319_c0_g5_i2.p1
020	NXPE family member 3	4	7	cluster030769	cluster030769_Lf142_Typhlosole_TRINITY_DN3066_c0_g1_i5.p1
020	NXPE family member 3	5	7	cluster021202	cluster021202_Lf142_Typhlosole_TRINITY_DN214_c0_g1_i2.p1
020	NXPE family member 3	6	7	cluster022684	cluster022684_Lf140_Typhlosole_TRINITY_DN10713_c0_g1_i6.p1
020	NXPE family member 3	7	7	cluster073692	cluster073692_Lf143_Typhlosole_TRINITY_DN17912_c0_g1_i6.p1
021	Down syndrome cell adhesion molecule protein 1	1	2	cluster049349	cluster049349_Lf140_Gills_TRINITY_DN5043_c1_g1_i1.p1
021	Down syndrome cell adhesion molecule protein 1	2	2	cluster045151	cluster045151_Lf145_Gills_TRINITY_DN1043_c0_g1_i2.p1
022	NA_271	1	1	cluster035829	cluster035829_Lf143_Blood_TRINITY_DN21163_c1_g1_i12.p1
023	uncharacterized protein LOC116955928	1	2	cluster010428	cluster010428_Pm144_Typhlosole_TRINITY_DN4290_c0_g1_i1.p1
023	uncharacterized protein LOC116955928	2	2	cluster039414	cluster039414_Lp136_Typhlosole_TRINITY_DN5959_c0_g1_i7.p1
024	paired immunoglobulin type 2 receptor alpha	1	4	cluster019485	cluster019485_Lp137_Kidney_TRINITY_DN861_c0_g1_i4.p1
024	paired immunoglobulin type 2 receptor alpha	2	4	cluster054484	cluster054484_Lf140_Typhlosole_TRINITY_DN11523_c0_g1_i6.p1
024	paired immunoglobulin type 2 receptor alpha	3	4	cluster076048	cluster076048_Lf141_Kidney_TRINITY_DN12851_c0_g1_i7.p1
024	paired immunoglobulin type 2 receptor alpha	4	4	cluster008879	cluster008879_Lp137_Kidney_TRINITY_DN861_c0_g1_i1.p1
025	cadherin-related family member 5	1	3	cluster016813	cluster016813_Lf143_Kidney_TRINITY_DN999_c0_g1_i3.p1
025	cadherin-related family member 5	2	3	cluster056606	cluster056606_Pm144_Blood_TRINITY_DN9324_c1_g1_i3.p2
025	cadherin-related family member 5	3	3	cluster021747	cluster021747_Lp138_Blood_TRINITY_DN6995_c0_g1_i10.p1
026	NA_311	1	1	cluster061953	cluster061953_Lp132_Kidney_TRINITY_DN33624_c0_g1_i3.p1
027	nectin-3 protein	1	3	cluster062699	cluster062699_Lf142_Typhlosole_TRINITY_DN769_c1_g1_i14.p1
027	nectin-3 protein	2	3	cluster056712	cluster056712_Lp133_Kidney_TRINITY_DN2023_c0_g1_i4.p1
027	nectin-3 protein	3	3	cluster026351	cluster026351_Lp136_Kidney_TRINITY_DN35_c0_g1_i8.p1
028	tumor necrosis factor receptor superfamily member 1A	1	4	cluster049897	cluster049897_Lp131_Kidney_TRINITY_DN35230_c3_g1_i1.p1
028	tumor necrosis factor receptor superfamily member 1A	2	4	cluster034631	cluster034631_Lp138_Blood_TRINITY_DN29971_c0_g1_i1.p1
028	tumor necrosis factor receptor superfamily member 1A	3	4	cluster004224	cluster004224_Lf143_Typhlosole_TRINITY_DN886_c0_g1_i7.p1
028	tumor necrosis factor receptor superfamily member 1A	4	4	cluster066002	cluster066002_Lf145_Typhlosole_TRINITY_DN18337_c0_g1_i9.p1
029	integrin beta-1	1	1	cluster064440	cluster064440_Lp139_Kidney_TRINITY_DN3818_c0_g3_i3.p1
030	myelin protein P0	1	7	cluster035262	cluster035262_Lp137_Typhlosole_TRINITY_DN24453_c0_g1_i9.p1
030	myelin protein P0	2	7	cluster043661	cluster043661_Lp136_Blood_TRINITY_DN16592_c0_g1_i3.p1
030	myelin protein P0	3	7	cluster048805	cluster048805_Lp132_Kidney_TRINITY_DN2645_c0_g1_i12.p1
030	myelin protein P0	4	7	cluster056163	cluster056163_Lp133_Kidney_TRINITY_DN48_c0_g1_i7.p1
030	myelin protein P0	5	7	cluster015132	cluster015132_Lf142_Typhlosole_TRINITY_DN6403_c0_g1_i1.p1
030	myelin protein P0	6	7	cluster067789	cluster067789_Lp138_Gills_TRINITY_DN251_c0_g1_i16.p1
030	myelin protein P0	7	7	cluster063611	cluster063611_Lp132_Kidney_TRINITY_DN2645_c0_g1_i7.p1
031	prolow-density lipoprotein receptor-related protein 1	1	1	cluster066870	cluster066870_Pm144_Kidney_TRINITY_DN52983_c0_g1_i1.p1
032	V-set and immunoglobulin domain-containing protein 1	1	5	cluster065996	cluster065996_Pm144_Gills_TRINITY_DN331_c0_g1_i6.p1
032	V-set and immunoglobulin domain-containing protein 1	2	5	cluster057953	cluster057953_Lp139_Kidney_TRINITY_DN21767_c0_g1_i3.p1
032	V-set and immunoglobulin domain-containing protein 1	3	5	cluster075046	cluster075046_Lp137_Gills_TRINITY_DN1820_c0_g1_i4.p1
032	V-set and immunoglobulin domain-containing protein 1	4	5	cluster064922	cluster064922_Lp138_Kidney_TRINITY_DN745_c0_g1_i3.p1
032	V-set and immunoglobulin domain-containing protein 1	5	5	cluster044043	cluster044043_Lp133_Typhlosole_TRINITY_DN1921_c0_g1_i3.p1
033	uncharacterized protein LOC116955624	1	3	cluster007139	cluster007139_Lp138_Blood_TRINITY_DN2105_c0_g1_i8.p1
033	uncharacterized protein LOC116955624	2	3	cluster039681	cluster039681_Lf145_Kidney_TRINITY_DN17255_c0_g1_i6.p1
033	uncharacterized protein LOC116955624	3	3	cluster032419	cluster032419_Lp136_Typhlosole_TRINITY_DN6694_c0_g1_i3.p1
034	uncharacterized protein LOC115888610	1	1	cluster075539	cluster075539_Lp138_Blood_TRINITY_DN7637_c0_g1_i6.p1
035	NA_434	1	1	cluster058235	cluster058235_Lp131_Typhlosole_TRINITY_DN10975_c0_g1_i10.p1
036	cadherin-related family member 4	1	2	cluster055435	cluster055435_Lf145_Gills_TRINITY_DN15634_c0_g1_i1.p1
036	cadherin-related family member 4	2	2	cluster008828	cluster008828_Lp137_Gills_TRINITY_DN8613_c0_g1_i1.p1
037	NA_449	1	1	cluster061841	cluster061841_Lp132_Gills_TRINITY_DN16829_c1_g1_i3.p2
038	NA_467	1	1	cluster032826	cluster032826_Lp131_Blood_TRINITY_DN19922_c0_g1_i1.p1
039	GTP-binding protein Di-Ras1	1	1	cluster058292	cluster058292_Lp139_Gills_TRINITY_DN2009_c2_g2_i1.p1
040	nectin-1	1	8	cluster004840	cluster004840_Lf141_Gills_TRINITY_DN11022_c0_g1_i3.p1
040	nectin-1	2	8	cluster007549	cluster007549_Lf140_Typhlosole_TRINITY_DN516_c1_g1_i11.p1
040	nectin-1	3	8	cluster064890	cluster064890_Lf145_Typhlosole_TRINITY_DN257_c0_g1_i1.p1
040	nectin-1	4	8	cluster037906	cluster037906_Lf143_Kidney_TRINITY_DN1457_c0_g1_i11.p1
040	nectin-1	5	8	cluster066702	cluster066702_Lf145_Kidney_TRINITY_DN10539_c0_g1_i7.p1
040	nectin-1	6	8	cluster043307	cluster043307_Lp131_Gills_TRINITY_DN10561_c0_g1_i6.p1
040	nectin-1	7	8	cluster028994	cluster028994_Lp136_Typhlosole_TRINITY_DN1912_c0_g1_i7.p1
040	nectin-1	8	8	cluster035943	cluster035943_Lp136_Typhlosole_TRINITY_DN1016_c0_g2_i1.p1
041	NA_480	1	1	cluster076177	cluster076177_Lp130_Typhlosole_TRINITY_DN23464_c0_g1_i11.p1
042	chemokine receptor 1	1	10	cluster056491	cluster056491_Lf145_Gills_TRINITY_DN6313_c0_g1_i10.p1
042	chemokine receptor 1	2	10	cluster022701	cluster022701_Lf141_Blood_TRINITY_DN291_c0_g1_i10.p1
042	chemokine receptor 1	3	10	cluster009916	cluster009916_Pm144_Blood_TRINITY_DN10664_c0_g1_i4.p1
042	chemokine receptor 1	4	10	cluster038353	cluster038353_Lf141_Typhlosole_TRINITY_DN716_c0_g1_i6.p1
042	chemokine receptor 1	5	10	cluster038645	cluster038645_Lf141_Typhlosole_TRINITY_DN716_c0_g1_i12.p1
042	chemokine receptor 1	6	10	cluster050913	cluster050913_Lf142_Gills_TRINITY_DN5043_c0_g1_i10.p1
042	chemokine receptor 1	7	10	cluster063333	cluster063333_Lf141_Blood_TRINITY_DN291_c0_g1_i3.p1
042	chemokine receptor 1	8	10	cluster057548	cluster057548_Lp139_Gills_TRINITY_DN2024_c2_g1_i5.p1
042	chemokine receptor 1	9	10	cluster019606	cluster019606_Lf141_Typhlosole_TRINITY_DN716_c0_g1_i11.p1
042	chemokine receptor 1	10	10	cluster022759	cluster022759_Lf141_Typhlosole_TRINITY_DN716_c0_g1_i10.p1
043	mucin-4	1	2	cluster063900	cluster063900_Lf141_Gills_TRINITY_DN382_c1_g1_i3.p1
043	mucin-4	2	2	cluster067229	cluster067229_Lp131_Kidney_TRINITY_DN9432_c0_g1_i2.p1
044	NA_527	1	1	cluster031914	cluster031914_Lf141_Gills_TRINITY_DN32647_c0_g1_i2.p1
045	B-cell receptor CD22	1	11	cluster029126	cluster029126_Lp136_Gills_TRINITY_DN3300_c0_g1_i7.p1
045	B-cell receptor CD22	2	11	cluster049413	cluster049413_Lp137_Typhlosole_TRINITY_DN97_c0_g1_i6.p1
045	B-cell receptor CD22	3	11	cluster042273	cluster042273_Lp137_Kidney_TRINITY_DN166_c0_g1_i4.p1
045	B-cell receptor CD22	4	11	cluster027961	cluster027961_Pm144_Kidney_TRINITY_DN5185_c0_g1_i9.p1
045	B-cell receptor CD22	5	11	cluster063377	cluster063377_Lf145_Blood_TRINITY_DN4771_c0_g1_i18.p1
045	B-cell receptor CD22	6	11	cluster065414	cluster065414_Lp130_Blood_TRINITY_DN5071_c0_g1_i5.p1
045	B-cell receptor CD22	7	11	cluster064630	cluster064630_Lp131_Gills_TRINITY_DN6259_c0_g4_i2.p1
045	B-cell receptor CD22	8	11	cluster043747	cluster043747_Lp136_Blood_TRINITY_DN979_c0_g1_i5.p1
045	B-cell receptor CD22	9	11	cluster067358	cluster067358_Lp130_Gills_TRINITY_DN6114_c1_g1_i16.p1
045	B-cell receptor CD22	10	11	cluster011946	cluster011946_Lf141_Blood_TRINITY_DN3115_c0_g1_i5.p1
045	B-cell receptor CD22	11	11	cluster011851	cluster011851_Lp137_Kidney_TRINITY_DN166_c0_g1_i1.p1
046	free fatty acid receptor 3	1	1	cluster016666	cluster016666_Lf141_Typhlosole_TRINITY_DN3194_c3_g1_i1.p1
047	uncharacterized protein LOC116958020	1	2	cluster066043	cluster066043_Lf142_Typhlosole_TRINITY_DN2639_c0_g1_i1.p1
047	uncharacterized protein LOC116958020	2	2	cluster075842	cluster075842_Lf140_Typhlosole_TRINITY_DN514_c0_g1_i13.p1
048	NA_569	1	1	cluster038980	cluster038980_Lf140_Typhlosole_TRINITY_DN17009_c0_g2_i2.p1
049	basal cell adhesion molecule	1	1	cluster010972	cluster010972_Pm144_Blood_TRINITY_DN1178_c1_g1_i5.p1
050	mucin-13	1	2	cluster017309	cluster017309_Pm144_Typhlosole_TRINITY_DN795_c0_g1_i4.p1
050	mucin-13	2	2	cluster021415	cluster021415_Lp138_Typhlosole_TRINITY_DN4833_c0_g1_i9.p1
051	tripartite motif-containing protein 14	1	5	cluster056225	cluster056225_Lf141_Typhlosole_TRINITY_DN420_c1_g1_i9.p1
051	tripartite motif-containing protein 14	2	5	cluster056333	cluster056333_Lp132_Typhlosole_TRINITY_DN97_c1_g2_i5.p1
051	tripartite motif-containing protein 14	3	5	cluster057108	cluster057108_Pm144_Typhlosole_TRINITY_DN2007_c0_g1_i5.p1
051	tripartite motif-containing protein 14	4	5	cluster073349	cluster073349_Lf142_Kidney_TRINITY_DN6053_c0_g1_i5.p1
051	tripartite motif-containing protein 14	5	5	cluster010020	cluster010020_Lf142_Kidney_TRINITY_DN6053_c0_g1_i1.p1
052	tripartite motif-containing protein 15	1	1	cluster073207	cluster073207_Lp136_Gills_TRINITY_DN238_c0_g1_i7.p1
053	uncharacterized protein LOC116958017	1	1	cluster021560	cluster021560_Lf141_Typhlosole_TRINITY_DN25196_c0_g3_i1.p1
054	NA_641	1	1	cluster074623	cluster074623_Lp133_Blood_TRINITY_DN19477_c1_g1_i4.p2
055	NA_652	1	1	cluster044369	cluster044369_Lp139_Kidney_TRINITY_DN87175_c0_g1_i4.p1
056	uncharacterized protein LOC116956899	1	7	cluster032470	cluster032470_Lp130_Gills_TRINITY_DN754_c0_g1_i7.p1
056	uncharacterized protein LOC116956899	2	7	cluster063851	cluster063851_Lp130_Gills_TRINITY_DN754_c0_g1_i11.p1
056	uncharacterized protein LOC116956899	3	7	cluster053798	cluster053798_Lp131_Kidney_TRINITY_DN8009_c0_g1_i2.p1
056	uncharacterized protein LOC116956899	4	7	cluster043779	cluster043779_Lf145_Gills_TRINITY_DN1155_c0_g1_i1.p1
056	uncharacterized protein LOC116956899	5	7	cluster063961	cluster063961_Lp137_Gills_TRINITY_DN115_c1_g1_i8.p1
056	uncharacterized protein LOC116956899	6	7	cluster056321	cluster056321_Pm144_Typhlosole_TRINITY_DN33783_c0_g1_i2.p1
056	uncharacterized protein LOC116956899	7	7	cluster078281	cluster078281_Lp131_Typhlosole_TRINITY_DN1515_c0_g5_i2.p2
057	cotranscriptional regulator FAM172A	1	1	cluster010136	cluster010136_Lf142_Typhlosole_TRINITY_DN868_c0_g1_i7.p1
058	NA_717	1	1	cluster066411	cluster066411_Lp130_Kidney_TRINITY_DN54033_c0_g1_i10.p1
059	NA_720	1	1	cluster047581	cluster047581_Lp139_Blood_TRINITY_DN10375_c0_g1_i3.p1
060	lymphocyte antigen 6E	1	1	cluster012453	cluster012453_Lp132_Typhlosole_TRINITY_DN28992_c0_g1_i4.p1
061	von Willebrand factor A domain-containing protein 7	1	5	cluster012322	cluster012322_Lp130_Kidney_TRINITY_DN7243_c0_g3_i2.p1
061	von Willebrand factor A domain-containing protein 7	2	5	cluster012940	cluster012940_Lf143_Gills_TRINITY_DN3675_c0_g1_i3.p1
061	von Willebrand factor A domain-containing protein 7	3	5	cluster055519	cluster055519_Lp138_Typhlosole_TRINITY_DN91685_c0_g1_i8.p1
061	von Willebrand factor A domain-containing protein 7	4	5	cluster065551	cluster065551_Lf145_Gills_TRINITY_DN1816_c0_g1_i3.p1
061	von Willebrand factor A domain-containing protein 7	5	5	cluster055642	cluster055642_Lp133_Typhlosole_TRINITY_DN4959_c0_g1_i1.p1
062	corticotropin-releasing factor receptor 2	1	1	cluster057348	cluster057348_Pm144_Gills_TRINITY_DN695_c2_g1_i4.p1
063	poliovirus receptor-related protein 3	1	1	cluster055827	cluster055827_Lf140_Typhlosole_TRINITY_DN888_c1_g1_i8.p1
064	NA_768	1	1	cluster077615	cluster077615_Lf143_Kidney_TRINITY_DN5291_c2_g1_i8.p1
065	plexin-A4	1	3	cluster063343	cluster063343_Lf143_Kidney_TRINITY_DN112550_c0_g1_i1.p1
065	plexin-A4	2	3	cluster063314	cluster063314_Lp132_Kidney_TRINITY_DN3327_c0_g1_i16.p1
065	plexin-A4	3	3	cluster004823	cluster004823_Lp131_Kidney_TRINITY_DN980_c0_g1_i4.p1
066	transmembrane protein 132C	1	1	cluster079262	cluster079262_Lp130_Kidney_TRINITY_DN78353_c0_g1_i1.p1
067	hemicentin-2	1	1	cluster004197	cluster004197_Pm144_Blood_TRINITY_DN2241_c0_g2_i2.p1
068	uncharacterized protein LOC116936891	1	2	cluster035380	cluster035380_Lp132_Gills_TRINITY_DN27707_c0_g1_i7.p1
068	uncharacterized protein LOC116936891	2	2	cluster049347	cluster049347_Pm144_Gills_TRINITY_DN24795_c0_g1_i1.p1
069	NA_859	1	1	cluster073110	cluster073110_Lp138_Gills_TRINITY_DN30989_c0_g1_i2.p1
070	uncharacterized protein LOC116957285	1	2	cluster055703	cluster055703_Lf142_Gills_TRINITY_DN501_c7_g2_i3.p1
070	uncharacterized protein LOC116957285	2	2	cluster010485	cluster010485_Pm144_Gills_TRINITY_DN13826_c0_g1_i9.p1
071	uncharacterized protein LOC116958014	1	6	cluster056082	cluster056082_Lp133_Typhlosole_TRINITY_DN1136_c0_g1_i9.p1
071	uncharacterized protein LOC116958014	2	6	cluster049056	cluster049056_Lp136_Gills_TRINITY_DN10818_c1_g1_i4.p1
071	uncharacterized protein LOC116958014	3	6	cluster012908	cluster012908_Lf140_Gills_TRINITY_DN273_c0_g1_i4.p1
071	uncharacterized protein LOC116958014	4	6	cluster011668	cluster011668_Lp131_Typhlosole_TRINITY_DN496_c0_g1_i1.p1
071	uncharacterized protein LOC116958014	5	6	cluster048185	cluster048185_Lp139_Typhlosole_TRINITY_DN874_c0_g1_i5.p1
071	uncharacterized protein LOC116958014	6	6	cluster045563	cluster045563_Lp138_Gills_TRINITY_DN679_c0_g1_i2.p1
072	NA_940	1	1	cluster049492	cluster049492_Lp136_Typhlosole_TRINITY_DN6530_c0_g1_i4.p1
073	tumor necrosis factor receptor 10B	1	1	cluster002748	cluster002748_Pm144_Blood_TRINITY_DN10599_c0_g1_i1.p1
074	NA_1007	1	1	cluster038020	cluster038020_Lp133_Gills_TRINITY_DN4937_c0_g1_i1.p1
075	NA_1010	1	1	cluster051179	cluster051179_Lp130_Typhlosole_TRINITY_DN60492_c1_g1_i1.p1
076	junctional adhesion molecule	1	2	cluster022706	cluster022706_Lp136_Gills_TRINITY_DN1733_c0_g2_i3.p1
076	junctional adhesion molecule	2	2	cluster056505	cluster056505_Lp132_Gills_TRINITY_DN10594_c0_g1_i1.p1
077	mucin-22	1	1	cluster051418	cluster051418_Pm144_Typhlosole_TRINITY_DN11243_c0_g1_i2.p1
078	NA_1047	1	1	cluster056634	cluster056634_Lp139_Typhlosole_TRINITY_DN3481_c3_g1_i1.p1
079	cadherin-related family member 2	1	1	cluster005996	cluster005996_Lf141_Blood_TRINITY_DN5412_c1_g2_i1.p1
080	dysferlin	1	1	cluster049789	cluster049789_Pm144_Kidney_TRINITY_DN25515_c0_g3_i1.p1
081	NA_1061	1	1	cluster051312	cluster051312_Lp132_Blood_TRINITY_DN56735_c3_g1_i1.p1
082	NA_1074	1	1	cluster072218	cluster072218_Lp137_Kidney_TRINITY_DN27459_c0_g1_i1.p1
083	uncharacterized protein LOC116937612	1	1	cluster048406	cluster048406_Lf140_Gills_TRINITY_DN1056_c0_g1_i4.p1
084	B box and SPRY domain-containing protein	1	4	cluster076504	cluster076504_Lp131_Kidney_TRINITY_DN12720_c0_g1_i2.p1
084	B box and SPRY domain-containing protein	2	4	cluster049624	cluster049624_Lp137_Gills_TRINITY_DN2212_c0_g2_i3.p1
084	B box and SPRY domain-containing protein	3	4	cluster050679	cluster050679_Lf145_Typhlosole_TRINITY_DN9105_c2_g1_i4.p1
084	B box and SPRY domain-containing protein	4	4	cluster015979	cluster015979_Lp130_Kidney_TRINITY_DN428_c0_g1_i5.p1
085	immunoglobulin superfamily member 2	1	1	cluster047512	cluster047512_Lp136_Kidney_TRINITY_DN11246_c2_g1_i3.p1
086	uncharacterized protein LOC116955922	1	1	cluster014038	cluster014038_Lp137_Gills_TRINITY_DN1401_c0_g1_i4.p1
087	interferon alpha-inducible protein 27 protein 2A	1	1	cluster067404	cluster067404_Lp136_Gills_TRINITY_DN1470_c0_g1_i5.p1
088	fukutin-related protein	1	1	cluster063840	cluster063840_Pm144_Blood_TRINITY_DN1010_c0_g1_i10.p2
089	high choriolytic enzyme 1	1	1	cluster075406	cluster075406_Lf142_Typhlosole_TRINITY_DN2103_c0_g1_i2.p1
090	CD166 antigen	1	1	cluster018221	cluster018221_Lp132_Typhlosole_TRINITY_DN1048_c0_g4_i1.p1
091	protein FAM151A	1	1	cluster051594	cluster051594_Pm144_Blood_TRINITY_DN27141_c0_g2_i1.p1
092	NA_1253	1	1	cluster049087	cluster049087_Lp137_Blood_TRINITY_DN20917_c0_g1_i1.p1
093	twitchin	1	1	cluster048095	cluster048095_Lp138_Blood_TRINITY_DN2052_c0_g1_i1.p1
094	neurexin-1	1	1	cluster074668	cluster074668_Lp139_Typhlosole_TRINITY_DN80972_c0_g3_i2.p1
095	vezatin	1	1	cluster010032	cluster010032_Lp130_Kidney_TRINITY_DN4399_c1_g1_i3.p1
096	NA_1357	1	1	cluster019321	cluster019321_Lp132_Gills_TRINITY_DN2200_c0_g1_i1.p1
097	NA_1364	1	1	cluster048777	cluster048777_Lf142_Typhlosole_TRINITY_DN22637_c0_g1_i9.p1
098	uncharacterized protein LOC116937419	1	3	cluster063623	cluster063623_Lf140_Kidney_TRINITY_DN13909_c0_g1_i8.p1
098	uncharacterized protein LOC116937419	2	3	cluster050797	cluster050797_Lp137_Gills_TRINITY_DN364_c0_g1_i13.p1
098	uncharacterized protein LOC116937419	3	3	cluster038358	cluster038358_Lf140_Kidney_TRINITY_DN13909_c0_g1_i4.p1
099	NXPE family member 4	1	1	cluster045198	cluster045198_Lp131_Gills_TRINITY_DN220_c0_g1_i3.p1
100	extended synaptotagmin-2	1	1	cluster007694	cluster007694_Lf142_Gills_TRINITY_DN314_c0_g1_i15.p1
101	NA_1420	1	1	cluster051709	cluster051709_Lp131_Blood_TRINITY_DN20378_c0_g1_i1.p1
102	NA_1431	1	1	cluster042927	cluster042927_Lf145_Typhlosole_TRINITY_DN26796_c0_g2_i2.p1
103	NA_1435	1	1	cluster058021	cluster058021_Lf145_Kidney_TRINITY_DN42655_c0_g1_i3.p2
104	tumor necrosis factor receptor superfamily member 10B	1	3	cluster075227	cluster075227_Lp130_Typhlosole_TRINITY_DN1170_c0_g1_i2.p1
104	tumor necrosis factor receptor superfamily member 10B	2	3	cluster055881	cluster055881_Lf142_Gills_TRINITY_DN1251_c0_g2_i9.p1
104	tumor necrosis factor receptor superfamily member 10B	3	3	cluster048710	cluster048710_Lp131_Typhlosole_TRINITY_DN30630_c0_g1_i2.p1
105	heat-stable enterotoxin receptor	1	1	cluster037179	cluster037179_Lf142_Typhlosole_TRINITY_DN5088_c0_g2_i19.p1
106	collectin-11	1	1	cluster004174	cluster004174_Lp133_Kidney_TRINITY_DN26881_c0_g1_i2.p1
107	uncharacterized protein LOC116952351	1	1	cluster011193	cluster011193_Lp131_Gills_TRINITY_DN22035_c2_g1_i3.p1
108	NA_1488	1	1	cluster067307	cluster067307_Lf145_Gills_TRINITY_DN26857_c0_g1_i3.p1
109	putative GPI-anchored protein pfl2	1	2	cluster025700	cluster025700_Lp130_Typhlosole_TRINITY_DN132_c0_g1_i4.p1
109	putative GPI-anchored protein pfl2	2	2	cluster062384	cluster062384_Lf141_Gills_TRINITY_DN59730_c0_g1_i4.p1
110	protein sidekick-2	1	1	cluster065789	cluster065789_Lp137_Typhlosole_TRINITY_DN11200_c1_g1_i1.p1
111	tumor necrosis factor receptor 1	1	1	cluster049121	cluster049121_Lp133_Typhlosole_TRINITY_DN553_c0_g1_i1.p1
112	NA_1524	1	1	cluster063085	cluster063085_Lp132_Kidney_TRINITY_DN44325_c0_g1_i7.p1
113	protein numb homolog	1	1	cluster059079	cluster059079_Lf141_Gills_TRINITY_DN21229_c0_g1_i3.p1
114	NA_1537	1	1	cluster029979	cluster029979_Lp136_Kidney_TRINITY_DN26978_c0_g1_i2.p1
115	NA_1538	1	1	cluster064089	cluster064089_Lp132_Kidney_TRINITY_DN29626_c1_g1_i2.p1
116	uncharacterized protein LOC111420848	1	1	cluster048784	cluster048784_Lp130_Blood_TRINITY_DN27964_c0_g1_i23.p1
117	sialoadhesin	1	1	cluster030159	cluster030159_Lp132_Blood_TRINITY_DN2173_c0_g1_i3.p1
118	NA_1589	1	1	cluster040303	cluster040303_Lp133_Gills_TRINITY_DN5911_c2_g4_i1.p1
119	kallikrein-14	1	1	cluster010931	cluster010931_Lf140_Gills_TRINITY_DN23371_c0_g1_i4.p1
120	adhesion G protein-coupled receptor F5	1	4	cluster054343	cluster054343_Lp139_Gills_TRINITY_DN4492_c1_g1_i1.p1
120	adhesion G protein-coupled receptor F5	2	4	cluster077211	cluster077211_Lf142_Typhlosole_TRINITY_DN186785_c0_g1_i1.p1
120	adhesion G protein-coupled receptor F5	3	4	cluster055452	cluster055452_Lp132_Gills_TRINITY_DN112_c0_g1_i3.p1
120	adhesion G protein-coupled receptor F5	4	4	cluster008777	cluster008777_Lp136_Typhlosole_TRINITY_DN6361_c0_g1_i12.p1
121	NA_1611	1	1	cluster062773	cluster062773_Lp130_Typhlosole_TRINITY_DN1424_c1_g1_i1.p1
122	IgGFc-binding protein	1	2	cluster031890	cluster031890_Lp130_Typhlosole_TRINITY_DN16328_c0_g1_i5.p1
122	IgGFc-binding protein	2	2	cluster021561	cluster021561_Lp133_Gills_TRINITY_DN101_c0_g1_i3.p1
123	FERM and PDZ domain-containing protein 4	1	1	cluster061950	cluster061950_Lp133_Typhlosole_TRINITY_DN7699_c2_g1_i1.p1
124	coxsackievirus and adenovirus receptor homolog	1	3	cluster071016	cluster071016_Lp131_Gills_TRINITY_DN32180_c0_g1_i3.p1
124	coxsackievirus and adenovirus receptor homolog	2	3	cluster022976	cluster022976_Lp137_Typhlosole_TRINITY_DN697_c0_g1_i20.p1
124	coxsackievirus and adenovirus receptor homolog	3	3	cluster036283	cluster036283_Lp132_Blood_TRINITY_DN7336_c0_g1_i1.p1
125	mucin-19	1	1	cluster075762	cluster075762_Lp133_Gills_TRINITY_DN16721_c2_g1_i3.p1
126	NA_1705	1	1	cluster036218	cluster036218_Lf142_Blood_TRINITY_DN8358_c0_g1_i12.p1
127	NA_1722	1	1	cluster064370	cluster064370_Lf140_Typhlosole_TRINITY_DN10213_c2_g1_i1.p1
128	deleted in malignant brain tumors 1 protein	1	1	cluster035877	cluster035877_Pm144_Gills_TRINITY_DN889_c0_g1_i2.p1
129	uncharacterized protein LOC116947047	1	1	cluster035523	cluster035523_Lf142_Blood_TRINITY_DN3706_c0_g1_i6.p1
130	uncharacterized protein LOC116958018	1	2	cluster050257	cluster050257_Lp131_Kidney_TRINITY_DN264_c0_g1_i6.p1
130	uncharacterized protein LOC116958018	2	2	cluster064581	cluster064581_Lp139_Gills_TRINITY_DN4136_c0_g1_i14.p1
131	NA_1826	1	1	cluster048642	cluster048642_Lp132_Gills_TRINITY_DN31026_c0_g1_i1.p1
132	uncharacterized protein LOC116957543	1	1	cluster036169	cluster036169_Lp139_Gills_TRINITY_DN12895_c0_g1_i4.p1
133	fibroblast growth factor receptor 3	1	1	cluster076810	cluster076810_Lp130_Kidney_TRINITY_DN5439_c0_g1_i2.p1
134	Neuroligin-4, X-linked	1	1	cluster050155	cluster050155_Lp132_Kidney_TRINITY_DN25450_c0_g1_i5.p1
135	NA_1850	1	1	cluster065489	cluster065489_Lp138_Kidney_TRINITY_DN2251_c0_g1_i4.p3
136	uncharacterized protein LOC116956903	1	3	cluster023180	cluster023180_Lp139_Gills_TRINITY_DN3471_c0_g1_i3.p1
136	uncharacterized protein LOC116956903	2	3	cluster055201	cluster055201_Lf142_Typhlosole_TRINITY_DN2667_c0_g1_i15.p1
136	uncharacterized protein LOC116956903	3	3	cluster053988	cluster053988_Lp132_Typhlosole_TRINITY_DN3043_c1_g1_i2.p1
137	uncharacterized protein LOC116943165	1	2	cluster044357	cluster044357_Lf141_Typhlosole_TRINITY_DN1844_c0_g1_i1.p1
137	uncharacterized protein LOC116943165	2	2	cluster039269	cluster039269_Lf145_Gills_TRINITY_DN71_c0_g1_i8.p1
138	zonadhesin	1	3	cluster042600	cluster042600_Lf140_Typhlosole_TRINITY_DN33_c11_g2_i2.p1
138	zonadhesin	2	3	cluster077514	cluster077514_Lf142_Kidney_TRINITY_DN11152_c0_g1_i3.p1
138	zonadhesin	3	3	cluster024445	cluster024445_Lp136_Typhlosole_TRINITY_DN1299_c1_g1_i5.p1
139	lymphocyte activation gene 3 protein	1	1	cluster055996	cluster055996_Pm144_Blood_TRINITY_DN560_c0_g1_i12.p1
140	neuronal cell adhesion molecule	1	1	cluster038514	cluster038514_Lp133_Kidney_TRINITY_DN7627_c0_g2_i1.p1
141	semaphorin-6B	1	1	cluster054898	cluster054898_Lp139_Kidney_TRINITY_DN84345_c0_g1_i5.p1
142	Calcitonin gene-related peptide type 1 receptor	1	1	cluster077567	cluster077567_Lf140_Typhlosole_TRINITY_DN126524_c0_g1_i1.p1
143	uncharacterized protein LOC116958027	1	1	cluster074215	cluster074215_Lp136_Gills_TRINITY_DN1822_c0_g1_i2.p1
144	sialin	1	1	cluster039057	cluster039057_Lf142_Typhlosole_TRINITY_DN30585_c0_g1_i2.p1
145	craniofacial development protein 2	1	1	cluster030099	cluster030099_Lf143_Blood_TRINITY_DN1208_c0_g1_i1.p1
146	uncharacterized protein LOC115887456	1	1	cluster013368	cluster013368_Lf141_Gills_TRINITY_DN287_c2_g2_i2.p1
147	NA_2060	1	1	cluster021843	cluster021843_Lp132_Typhlosole_TRINITY_DN22959_c0_g1_i5.p1
148	NA_2062	1	1	cluster078400	cluster078400_Lf145_Typhlosole_TRINITY_DN22037_c0_g1_i1.p1
149	NA_2105	1	1	cluster055302	cluster055302_Lp136_Blood_TRINITY_DN22746_c0_g1_i2.p1
150	Fc receptor protein 2	1	1	cluster017523	cluster017523_Lp132_Blood_TRINITY_DN15324_c2_g1_i3.p1
151	NA_2126	1	1	cluster043855	cluster043855_Lp136_Blood_TRINITY_DN3787_c1_g1_i1.p1
152	C5a anaphylatoxin chemotactic receptor 1	1	1	cluster048452	cluster048452_Lp133_Typhlosole_TRINITY_DN62885_c0_g1_i2.p1
153	NXPE family member 2	1	1	cluster024547	cluster024547_Pm144_Gills_TRINITY_DN405_c0_g1_i4.p1
154	putative polyprotein	1	1	cluster067211	cluster067211_Lp136_Gills_TRINITY_DN3046_c0_g2_i1.p1
155	copine-1	1	1	cluster060407	cluster060407_Lf140_Kidney_TRINITY_DN3818_c0_g1_i2.p1
156	titin	1	1	cluster043670	cluster043670_Lf142_Gills_TRINITY_DN133_c1_g1_i3.p1
157	EMILIN-1	1	1	cluster053734	cluster053734_Lp138_Typhlosole_TRINITY_DN7587_c0_g1_i5.p1
158	uncharacterized protein LOC8032252	1	1	cluster034945	cluster034945_Lf140_Gills_TRINITY_DN11079_c0_g1_i2.p1
159	NA_2424	1	1	cluster065465	cluster065465_Lf141_Gills_TRINITY_DN2978_c0_g1_i6.p2
160	hippocalcin protein 1	1	1	cluster009957	cluster009957_Lp132_Blood_TRINITY_DN3955_c0_g1_i3.p1
161	mucin protein	1	2	cluster044605	cluster044605_Lp131_Gills_TRINITY_DN937_c0_g1_i4.p1
161	mucin protein	2	2	cluster033583	cluster033583_Lf143_Typhlosole_TRINITY_DN18238_c0_g1_i6.p1
162	uncharacterized protein LOC116938821	1	1	cluster010738	cluster010738_Lf140_Blood_TRINITY_DN45580_c0_g1_i4.p1
163	multidrug resistance-associated protein 1	1	1	cluster039333	cluster039333_Lp130_Gills_TRINITY_DN6479_c0_g2_i4.p1
164	NA_2516	1	1	cluster026029	cluster026029_Lf145_Typhlosole_TRINITY_DN3017_c8_g1_i1.p1
165	trace amine-associated receptor 9	1	1	cluster047700	cluster047700_Lf142_Kidney_TRINITY_DN36746_c0_g1_i1.p1
166	uncharacterized protein LOC116937414	1	1	cluster055612	cluster055612_Lf142_Typhlosole_TRINITY_DN2721_c0_g1_i1.p1
167	low-density lipoprotein receptor-related protein 6	1	1	cluster027954	cluster027954_Lp133_Kidney_TRINITY_DN4822_c0_g2_i1.p1
168	NA_2560	1	1	cluster048370	cluster048370_Lf142_Typhlosole_TRINITY_DN6298_c1_g1_i1.p1
169	NA_2566	1	1	cluster049708	cluster049708_Lp131_Blood_TRINITY_DN7425_c0_g1_i2.p1
170	uncharacterized protein LOC116937415	1	1	cluster064704	cluster064704_Lp137_Blood_TRINITY_DN13937_c0_g1_i8.p1
171	uncharacterized protein LOC116947311	1	1	cluster015596	cluster015596_Lf142_Typhlosole_TRINITY_DN2752_c0_g1_i3.p1
172	uncharacterized protein LOC116941317	1	1	cluster003270	cluster003270_Lf140_Blood_TRINITY_DN3292_c0_g1_i4.p1
173	coxsackievirus and adenovirus receptor	1	1	cluster062922	cluster062922_Lf142_Kidney_TRINITY_DN40892_c0_g1_i1.p1
174	CUB and sushi domain-containing protein 3	1	1	cluster073230	cluster073230_Lp136_Typhlosole_TRINITY_DN132880_c0_g1_i1.p1
175	NA_2648	1	1	cluster064677	cluster064677_Lf143_Typhlosole_TRINITY_DN3239_c0_g3_i11.p1
176	NA_2700	1	1	cluster056570	cluster056570_Lp133_Blood_TRINITY_DN9975_c0_g5_i1.p1
177	prominin-1	1	1	cluster057398	cluster057398_Pm144_Kidney_TRINITY_DN7707_c0_g2_i11.p1
178	gap junction gamma-1 protein	1	1	cluster005340	cluster005340_Lp130_Blood_TRINITY_DN12965_c2_g1_i4.p1
179	uncharacterized protein LOC116937840	1	1	cluster015343	cluster015343_Pm144_Typhlosole_TRINITY_DN5401_c0_g1_i4.p1
180	NA_2736	1	1	cluster051082	cluster051082_Lp133_Blood_TRINITY_DN4709_c0_g1_i4.p2
181	netrin receptor UNC5C	1	1	cluster073755	cluster073755_Lf142_Kidney_TRINITY_DN9078_c0_g1_i13.p1
182	NA_2782	1	1	cluster063631	cluster063631_Lf143_Typhlosole_TRINITY_DN22897_c0_g1_i4.p1
183	NA_2814	1	1	cluster078868	cluster078868_Lp133_Blood_TRINITY_DN4111_c0_g1_i1.p1
184	NA_2836	1	1	cluster056900	cluster056900_Lp133_Typhlosole_TRINITY_DN2650_c1_g2_i5.p2
185	NA_2839	1	1	cluster066344	cluster066344_Lf141_Kidney_TRINITY_DN46882_c0_g1_i5.p1
186	CUB and zona pellucida domain-containing protein 1	1	1	cluster021441	cluster021441_Pm144_Gills_TRINITY_DN3011_c0_g3_i1.p1
187	ly6/PLAUR domain-containing protein 6	1	1	cluster072945	cluster072945_Lp137_Typhlosole_TRINITY_DN10082_c0_g1_i14.p1
188	NA_2912	1	1	cluster022911	cluster022911_Lf143_Gills_TRINITY_DN20185_c0_g1_i2.p2
189	NA_2919	1	1	cluster067624	cluster067624_Lp137_Kidney_TRINITY_DN1883_c0_g1_i2.p1
190	NA_2932	1	1	cluster047515	cluster047515_Lp133_Blood_TRINITY_DN41167_c0_g1_i1.p1
191	NA_2949	1	1	cluster066548	cluster066548_Lf140_Typhlosole_TRINITY_DN6671_c0_g2_i6.p1
192	NA_2950	1	1	cluster064656	cluster064656_Lp138_Kidney_TRINITY_DN30929_c0_g1_i4.p1
193	NA_3010	1	1	cluster026885	cluster026885_Lp137_Typhlosole_TRINITY_DN7084_c0_g1_i2.p1
194	uncharacterized protein LOC116954137	1	1	cluster060394	cluster060394_Pm144_Blood_TRINITY_DN22681_c0_g1_i15.p1
195	NA_3028	1	1	cluster054606	cluster054606_Lf145_Blood_TRINITY_DN5188_c1_g1_i2.p1
196	NA_3037	1	1	cluster019094	cluster019094_Lf143_Blood_TRINITY_DN4926_c0_g1_i8.p1
197	NA_3071	1	1	cluster059412	cluster059412_Lf142_Typhlosole_TRINITY_DN26945_c0_g1_i5.p1
198	sialic acid-binding Ig lectin 15	1	1	cluster060178	cluster060178_Lp132_Typhlosole_TRINITY_DN8920_c1_g1_i5.p1
199	tumor necrosis factor receptor superfamily member 5	1	1	cluster043887	cluster043887_Lp139_Blood_TRINITY_DN5135_c2_g1_i7.p1
200	GTP-binding protein Rheb	1	1	cluster040497	cluster040497_Lp136_Gills_TRINITY_DN24946_c0_g1_i1.p1
201	NA_3151	1	1	cluster012653	cluster012653_Lp138_Blood_TRINITY_DN2532_c0_g1_i1.p1
202	NA_3175	1	1	cluster055532	cluster055532_Lp136_Gills_TRINITY_DN37_c0_g1_i21.p1
203	NA_3185	1	1	cluster058006	cluster058006_Lp132_Typhlosole_TRINITY_DN25008_c1_g1_i2.p1
204	NA_3188	1	1	cluster030164	cluster030164_Lp136_Blood_TRINITY_DN10225_c1_g2_i5.p1
205	NA_3215	1	1	cluster042272	cluster042272_Lp139_Gills_TRINITY_DN15502_c0_g2_i1.p1
206	NA_3242	1	1	cluster047908	cluster047908_Lp131_Blood_TRINITY_DN47941_c0_g1_i8.p1
207	NA_3248	1	1	cluster050060	cluster050060_Lf145_Typhlosole_TRINITY_DN8428_c0_g1_i3.p1
208	NA_3252	1	1	cluster073933	cluster073933_Lp130_Blood_TRINITY_DN17167_c0_g1_i1.p1
209	lymphatic vessel endothelial hyaluronic acid receptor 1	1	1	cluster018276	cluster018276_Lf142_Kidney_TRINITY_DN1734_c0_g1_i12.p1
210	leucine-rich repeat and calponin homology domain-containing protein 1	1	1	cluster002227	cluster002227_Lf140_Kidney_TRINITY_DN14631_c0_g1_i8.p1
211	zona pellucida sperm-binding protein 4	1	1	cluster048753	cluster048753_Pm144_Kidney_TRINITY_DN16636_c0_g1_i1.p1
212	lamprin 0.9	1	1	cluster033143	cluster033143_Lf141_Typhlosole_TRINITY_DN10446_c2_g1_i14.p2
213	endothelin receptor type B	1	1	cluster032717	cluster032717_Lp131_Kidney_TRINITY_DN6045_c0_g1_i1.p1
214	NA_3426	1	1	cluster071088	cluster071088_Lf145_Blood_TRINITY_DN40192_c0_g1_i23.p1
215	NA_3436	1	1	cluster026108	cluster026108_Lp138_Kidney_TRINITY_DN992_c0_g1_i7.p1
216	NA_3453	1	1	cluster038618	cluster038618_Lp136_Typhlosole_TRINITY_DN19979_c0_g1_i1.p1
217	NA_3458	1	1	cluster072504	cluster072504_Lf140_Kidney_TRINITY_DN5237_c0_g1_i4.p1
218	uncharacterized protein LOC116957550	1	1	cluster058001	cluster058001_Lp139_Blood_TRINITY_DN22067_c1_g1_i1.p1
219	keratinocyte-associated transmembrane protein 2	1	1	cluster040537	cluster040537_Lp137_Typhlosole_TRINITY_DN848_c0_g1_i5.p1
220	NA_3490	1	1	cluster015562	cluster015562_Lf143_Typhlosole_TRINITY_DN57170_c0_g2_i1.p1
221	NA_3496	1	1	cluster058915	cluster058915_Lf145_Gills_TRINITY_DN26857_c0_g1_i2.p1
222	NA_3508	1	1	cluster007948	cluster007948_Lp132_Gills_TRINITY_DN27666_c0_g2_i10.p1
223	NA_3513	1	1	cluster064588	cluster064588_Lf142_Typhlosole_TRINITY_DN18818_c0_g1_i3.p1
224	hephaestin protein 1	1	1	cluster032513	cluster032513_Lf141_Typhlosole_TRINITY_DN50541_c0_g1_i2.p1
