individual	sample	R1	R2
#SRR032238	data/raw/SRR032238.fastq.gz
#SRR032240	data/raw/SRR032240.fastq.gz
#SRR032241	data/raw/SRR032241.fastq.gz
#SRR032247	data/raw/SRR032247.fastq.gz
#SRR032248	data/raw/SRR032248.fastq.gz
#SRR032249	data/raw/SRR032249.fastq.gz
#SRR032250	data/raw/SRR032250.fastq.gz
#SRR032252	data/raw/SRR032252.fastq.gz
Lp130	Lp130_Blood	/data/boehm/group/holland/data/fastq/raw/renamed/130_Blood_R1.fastq.gz	/data/boehm/group/holland/data/fastq/raw/renamed/130_Blood_R2.fastq.gz
Lp130	Lp130_Gills	/data/boehm/group/holland/data/fastq/raw/renamed/130_Gills_R1.fastq.gz	/data/boehm/group/holland/data/fastq/raw/renamed/130_Gills_R2.fastq.gz
Lp130	Lp130_Kidney	/data/boehm/group/holland/data/fastq/raw/renamed/130_Kidney_R1.fastq.gz	/data/boehm/group/holland/data/fastq/raw/renamed/130_Kidney_R2.fastq.gz
Lp130	Lp130_Typhlosole	/data/boehm/group/holland/data/fastq/raw/renamed/130_Typhlosole_R1.fastq.gz	/data/boehm/group/holland/data/fastq/raw/renamed/130_Typhlosole_R2.fastq.gz
Lp131	Lp131_Blood	/data/boehm/group/holland/data/fastq/raw/renamed/131_Blood_R1.fastq.gz	/data/boehm/group/holland/data/fastq/raw/renamed/131_Blood_R2.fastq.gz
Lp131	Lp131_Gills	/data/boehm/group/holland/data/fastq/raw/renamed/131_Gills_R1.fastq.gz	/data/boehm/group/holland/data/fastq/raw/renamed/131_Gills_R2.fastq.gz
Lp131	Lp131_Kidney	/data/boehm/group/holland/data/fastq/raw/renamed/131_Kidney_R1.fastq.gz	/data/boehm/group/holland/data/fastq/raw/renamed/131_Kidney_R2.fastq.gz
Lp131	Lp131_Typhlosole	/data/boehm/group/holland/data/fastq/raw/renamed/131_Typhlosole_R1.fastq.gz	/data/boehm/group/holland/data/fastq/raw/renamed/131_Typhlosole_R2.fastq.gz
Lp132	Lp132_Blood	/data/boehm/group/holland/data/fastq/raw/renamed/132_Blood_R1.fastq.gz	/data/boehm/group/holland/data/fastq/raw/renamed/132_Blood_R2.fastq.gz
Lp132	Lp132_Gills	/data/boehm/group/holland/data/fastq/raw/renamed/132_Gills_R1.fastq.gz	/data/boehm/group/holland/data/fastq/raw/renamed/132_Gills_R2.fastq.gz
Lp132	Lp132_Kidney	/data/boehm/group/holland/data/fastq/raw/renamed/132_Kidney_R1.fastq.gz	/data/boehm/group/holland/data/fastq/raw/renamed/132_Kidney_R2.fastq.gz
Lp132	Lp132_Typhlosole	/data/boehm/group/holland/data/fastq/raw/renamed/132_Typhlosole_R1.fastq.gz	/data/boehm/group/holland/data/fastq/raw/renamed/132_Typhlosole_R2.fastq.gz
Lp133	Lp133_Blood	/data/boehm/group/holland/data/fastq/raw/renamed/133_Blood_R1.fastq.gz	/data/boehm/group/holland/data/fastq/raw/renamed/133_Blood_R2.fastq.gz
Lp133	Lp133_Gills	/data/boehm/group/holland/data/fastq/raw/renamed/133_Gills_R1.fastq.gz	/data/boehm/group/holland/data/fastq/raw/renamed/133_Gills_R2.fastq.gz
Lp133	Lp133_Kidney	/data/boehm/group/holland/data/fastq/raw/renamed/133_Kidney_R1.fastq.gz	/data/boehm/group/holland/data/fastq/raw/renamed/133_Kidney_R2.fastq.gz
Lp133	Lp133_Typhlosole	/data/boehm/group/holland/data/fastq/raw/renamed/133_Typhlosole_R1.fastq.gz	/data/boehm/group/holland/data/fastq/raw/renamed/133_Typhlosole_R2.fastq.gz
Lp136	Lp136_Blood	/data/boehm/group/holland/data/fastq/raw/renamed/136_Blood_R1.fastq.gz	/data/boehm/group/holland/data/fastq/raw/renamed/136_Blood_R2.fastq.gz
Lp136	Lp136_Gills	/data/boehm/group/holland/data/fastq/raw/renamed/136_Gills_R1.fastq.gz	/data/boehm/group/holland/data/fastq/raw/renamed/136_Gills_R2.fastq.gz
Lp136	Lp136_Kidney	/data/boehm/group/holland/data/fastq/raw/renamed/136_Kidney_R1.fastq.gz	/data/boehm/group/holland/data/fastq/raw/renamed/136_Kidney_R2.fastq.gz
Lp136	Lp136_Typhlosole	/data/boehm/group/holland/data/fastq/raw/renamed/136_Typhlosole_R1.fastq.gz	/data/boehm/group/holland/data/fastq/raw/renamed/136_Typhlosole_R2.fastq.gz
Lp137	Lp137_Blood	/data/boehm/group/holland/data/fastq/raw/renamed/137_Blood_R1.fastq.gz	/data/boehm/group/holland/data/fastq/raw/renamed/137_Blood_R2.fastq.gz
Lp137	Lp137_Gills	/data/boehm/group/holland/data/fastq/raw/renamed/137_Gills_R1.fastq.gz	/data/boehm/group/holland/data/fastq/raw/renamed/137_Gills_R2.fastq.gz
Lp137	Lp137_Kidney	/data/boehm/group/holland/data/fastq/raw/renamed/137_Kidney_R1.fastq.gz	/data/boehm/group/holland/data/fastq/raw/renamed/137_Kidney_R2.fastq.gz
Lp137	Lp137_Typhlosole	/data/boehm/group/holland/data/fastq/raw/renamed/137_Typhlosole_R1.fastq.gz	/data/boehm/group/holland/data/fastq/raw/renamed/137_Typhlosole_R2.fastq.gz
Lp138	Lp138_Blood	/data/boehm/group/holland/data/fastq/raw/renamed/138_Blood_R1.fastq.gz	/data/boehm/group/holland/data/fastq/raw/renamed/138_Blood_R2.fastq.gz
Lp138	Lp138_Gills	/data/boehm/group/holland/data/fastq/raw/renamed/138_Gills_R1.fastq.gz	/data/boehm/group/holland/data/fastq/raw/renamed/138_Gills_R2.fastq.gz
Lp138	Lp138_Kidney	/data/boehm/group/holland/data/fastq/raw/renamed/138_Kidney_R1.fastq.gz	/data/boehm/group/holland/data/fastq/raw/renamed/138_Kidney_R2.fastq.gz
Lp138	Lp138_Typhlosole	/data/boehm/group/holland/data/fastq/raw/renamed/138_Typhlosole_R1.fastq.gz	/data/boehm/group/holland/data/fastq/raw/renamed/138_Typhlosole_R2.fastq.gz
Lp139	Lp139_Blood	/data/boehm/group/holland/data/fastq/raw/renamed/139_Blood_R1.fastq.gz	/data/boehm/group/holland/data/fastq/raw/renamed/139_Blood_R2.fastq.gz
Lp139	Lp139_Gills	/data/boehm/group/holland/data/fastq/raw/renamed/139_Gills_R1.fastq.gz	/data/boehm/group/holland/data/fastq/raw/renamed/139_Gills_R2.fastq.gz
Lp139	Lp139_Kidney	/data/boehm/group/holland/data/fastq/raw/renamed/139_Kidney_R1.fastq.gz	/data/boehm/group/holland/data/fastq/raw/renamed/139_Kidney_R2.fastq.gz
Lp139	Lp139_Typhlosole	/data/boehm/group/holland/data/fastq/raw/renamed/139_Typhlosole_R1.fastq.gz	/data/boehm/group/holland/data/fastq/raw/renamed/139_Typhlosole_R2.fastq.gz
Lf140	Lf140_Blood	/data/boehm/group/holland/data/fastq/raw/renamed/140_Blood_1_R1.fastq.gz	/data/boehm/group/holland/data/fastq/raw/renamed/140_Blood_1_R2.fastq.gz
Lf140	Lf140_Gills	/data/boehm/group/holland/data/fastq/raw/renamed/140_Gills_R1.fastq.gz	/data/boehm/group/holland/data/fastq/raw/renamed/140_Gills_R2.fastq.gz
Lf140	Lf140_Kidney	/data/boehm/group/holland/data/fastq/raw/renamed/140_Kidney_R1.fastq.gz	/data/boehm/group/holland/data/fastq/raw/renamed/140_Kidney_R2.fastq.gz
Lf140	Lf140_Typhlosole	/data/boehm/group/holland/data/fastq/raw/renamed/140_Typhlosole_R1.fastq.gz	/data/boehm/group/holland/data/fastq/raw/renamed/140_Typhlosole_R2.fastq.gz
Lf141	Lf141_Blood	/data/boehm/group/holland/data/fastq/raw/renamed/141_Blood_1_R1.fastq.gz	/data/boehm/group/holland/data/fastq/raw/renamed/141_Blood_1_R2.fastq.gz
Lf141	Lf141_Gills	/data/boehm/group/holland/data/fastq/raw/renamed/141_Gills_R1.fastq.gz	/data/boehm/group/holland/data/fastq/raw/renamed/141_Gills_R2.fastq.gz
Lf141	Lf141_Kidney	/data/boehm/group/holland/data/fastq/raw/renamed/141_Kidney_R1.fastq.gz	/data/boehm/group/holland/data/fastq/raw/renamed/141_Kidney_R2.fastq.gz
Lf141	Lf141_Typhlosole	/data/boehm/group/holland/data/fastq/raw/renamed/141_Typhlosole_R1.fastq.gz	/data/boehm/group/holland/data/fastq/raw/renamed/141_Typhlosole_R2.fastq.gz
Lf142	Lf142_Blood	/data/boehm/group/holland/data/fastq/raw/renamed/142_Blood_R1.fastq.gz	/data/boehm/group/holland/data/fastq/raw/renamed/142_Blood_R2.fastq.gz
Lf142	Lf142_Gills	/data/boehm/group/holland/data/fastq/raw/renamed/142_Gills_R1.fastq.gz	/data/boehm/group/holland/data/fastq/raw/renamed/142_Gills_R2.fastq.gz
Lf142	Lf142_Kidney	/data/boehm/group/holland/data/fastq/raw/renamed/142_Kidney_R1.fastq.gz	/data/boehm/group/holland/data/fastq/raw/renamed/142_Kidney_R2.fastq.gz
Lf142	Lf142_Typhlosole	/data/boehm/group/holland/data/fastq/raw/renamed/142_Typhlosole_R1.fastq.gz	/data/boehm/group/holland/data/fastq/raw/renamed/142_Typhlosole_R2.fastq.gz
Lf143	Lf143_Blood	/data/boehm/group/holland/data/fastq/raw/renamed/143_Blood_R1.fastq.gz	/data/boehm/group/holland/data/fastq/raw/renamed/143_Blood_R2.fastq.gz
Lf143	Lf143_Gills	/data/boehm/group/holland/data/fastq/raw/renamed/143_Gills_R1.fastq.gz	/data/boehm/group/holland/data/fastq/raw/renamed/143_Gills_R2.fastq.gz
Lf143	Lf143_Kidney	/data/boehm/group/holland/data/fastq/raw/renamed/143_Kidney_R1.fastq.gz	/data/boehm/group/holland/data/fastq/raw/renamed/143_Kidney_R2.fastq.gz
Lf143	Lf143_Typhlosole	/data/boehm/group/holland/data/fastq/raw/renamed/143_Typhlosole_R1.fastq.gz	/data/boehm/group/holland/data/fastq/raw/renamed/143_Typhlosole_R2.fastq.gz
Pm144	Pm144_Blood	/data/boehm/group/holland/data/fastq/raw/renamed/144_Blood_R1.fastq.gz	/data/boehm/group/holland/data/fastq/raw/renamed/144_Blood_R2.fastq.gz
Pm144	Pm144_Gills	/data/boehm/group/holland/data/fastq/raw/renamed/144_Gills_R1.fastq.gz	/data/boehm/group/holland/data/fastq/raw/renamed/144_Gills_R2.fastq.gz
Pm144	Pm144_Kidney	/data/boehm/group/holland/data/fastq/raw/renamed/144_Kidney_R1.fastq.gz	/data/boehm/group/holland/data/fastq/raw/renamed/144_Kidney_R2.fastq.gz
Pm144	Pm144_Typhlosole	/data/boehm/group/holland/data/fastq/raw/renamed/144_Typhlosole_R1.fastq.gz	/data/boehm/group/holland/data/fastq/raw/renamed/144_Typhlosole_R2.fastq.gz
Lf145	Lf145_Blood	/data/boehm/group/holland/data/fastq/raw/renamed/145_Blood_R1.fastq.gz	/data/boehm/group/holland/data/fastq/raw/renamed/145_Blood_R2.fastq.gz
Lf145	Lf145_Gills	/data/boehm/group/holland/data/fastq/raw/renamed/145_Gills_R1.fastq.gz	/data/boehm/group/holland/data/fastq/raw/renamed/145_Gills_R2.fastq.gz
Lf145	Lf145_Kidney	/data/boehm/group/holland/data/fastq/raw/renamed/145_Kidney_R1.fastq.gz	/data/boehm/group/holland/data/fastq/raw/renamed/145_Kidney_R2.fastq.gz
Lf145	Lf145_Typhlosole	/data/boehm/group/holland/data/fastq/raw/renamed/145_Typhlosole_R1.fastq.gz	/data/boehm/group/holland/data/fastq/raw/renamed/145_Typhlosole_R2.fastq.gz
